<?xml version="1.0" encoding="UTF-8"?>
<!DOCTYPE svg PUBLIC "-//W3C//DTD SVG 1.1//EN" "http://www.w3.org/Graphics/SVG/1.1/DTD/svg11.dtd">
<!-- Creator: CorelDRAW X7 -->
<svg xmlns="http://www.w3.org/2000/svg" xml:space="preserve" width="4.94602in" height="1.5522in" version="1.1" style="shape-rendering:geometricPrecision; text-rendering:geometricPrecision; image-rendering:optimizeQuality; fill-rule:evenodd; clip-rule:evenodd"
viewBox="0 0 4946 1552"
 xmlns:xlink="http://www.w3.org/1999/xlink">
 <defs>
  <style type="text/css">
   <![CDATA[
    .fil3 {fill:#96989A}
    .fil1 {fill:#684D36}
    .fil0 {fill:#684D36;fill-rule:nonzero}
    .fil2 {fill:#008E55;fill-rule:nonzero}
   ]]>
  </style>
 </defs>
 <g id="Layer_x0020_1">
  <metadata id="CorelCorpID_0Corel-Layer"/>
  <g id="_897586448">
   <g>
    <polygon class="fil0" points="821,1033 972,1033 972,824 1141,1033 1275,1033 1275,579 1125,579 1125,780 963,579 821,579 "/>
    <polygon class="fil0" points="1329,1033 1480,1033 1480,579 1329,579 "/>
    <path class="fil1" d="M1686 802l0 -102 41 0c21,0 36,5 48,13 11,8 16,21 17,37l0 2c-1,16 -7,28 -18,37 -12,8 -28,13 -47,13l-41 0zm-152 231l152 0 0 -123 49 0c62,0 112,-15 149,-43 37,-28 57,-70 57,-125l0 -1c0,-54 -19,-95 -56,-122 -36,-26 -85,-40 -147,-40l-204 0 0 454z"/>
    <path class="fil1" d="M2126 802l0 -102 42 0c20,0 36,5 47,13 11,8 17,21 17,37l0 2c0,16 -6,28 -18,37 -11,8 -27,13 -47,13l-41 0zm-151 231l151 0 0 -123 50 0c62,0 112,-15 149,-43 37,-28 56,-70 57,-125l0 -1c-1,-54 -20,-95 -56,-122 -37,-26 -86,-40 -147,-40l-204 0 0 454z"/>
    <path class="fil1" d="M2654 909c-30,-1 -53,-12 -70,-31 -17,-20 -26,-44 -26,-72l0 -1c0,-28 9,-51 26,-71 16,-19 39,-30 68,-30 30,0 53,11 70,31 17,19 25,43 26,71l0 1c-1,28 -9,51 -26,71 -16,20 -39,30 -68,31zm-2 134c47,-1 90,-11 127,-32 37,-21 67,-49 88,-85 22,-35 33,-75 34,-120l0 -1c-1,-45 -12,-84 -33,-120 -22,-35 -51,-63 -88,-84 -37,-21 -79,-31 -126,-32 -48,1 -90,12 -127,32 -37,21 -67,50 -89,85 -21,36 -32,76 -33,120l0 1c1,45 11,85 33,120 21,35 51,63 88,84 37,21 79,31 126,32z"/>
    <path class="fil2" d="M0 777c0,-36 31,-67 31,-67l961 -698c0,0 21,-12 43,-12 24,0 41,11 41,11l606 438c0,0 13,10 13,19 0,8 -26,7 -26,7l-287 0c0,0 -39,0 -54,-6 -18,-6 -44,-23 -44,-23l-220 -151c0,0 -14,-8 -29,-8 -14,0 -30,8 -30,8l-667 469c0,0 -8,5 -8,13 0,8 8,13 8,13l654 458c0,0 23,18 43,18 20,0 45,-19 45,-19l160 -118c0,0 31,-20 50,-24 20,-3 73,-2 73,-2l264 0c0,0 28,-1 22,10 -5,9 -24,24 -24,24l-538 397c0,0 -24,18 -52,18 -29,0 -52,-17 -52,-17l-954 -693c0,0 -29,-29 -29,-65z"/>
   </g>
   <path class="fil3" d="M3221 1030l-75 0c-34,0 -61,-9 -80,-28 -18,-19 -28,-46 -28,-80l0 -233c0,-34 10,-61 28,-80 19,-18 46,-28 80,-28l75 0c35,0 61,10 80,28 19,19 28,46 28,80l0 26c0,8 -4,12 -11,12l-44 0c-8,0 -12,-4 -12,-12l0 -23c0,-34 -17,-52 -51,-52l-55 0c-33,0 -50,18 -50,52l0 227c0,35 17,52 50,52l55 0c34,0 51,-17 51,-52l0 -63c0,-4 -3,-7 -8,-7l-57 0c-8,0 -11,-4 -11,-12l0 -35c0,-8 3,-12 11,-12l118 0c10,0 14,5 14,15l0 117c0,34 -9,61 -28,80 -19,19 -46,28 -80,28zm325 0l-27 0c-35,0 -61,-9 -80,-28 -19,-19 -29,-46 -29,-80l0 -140c0,-34 10,-61 29,-80 19,-19 45,-28 80,-28l156 0c9,0 13,4 13,12l0 332c0,8 -4,12 -13,12l-44 0c-8,0 -12,-4 -12,-12l0 -25 -3 0c-11,25 -34,37 -70,37zm73 -118l0 -172c0,-4 -2,-7 -7,-7l-84 0c-33,0 -50,18 -50,52l0 134c0,35 17,52 50,52l34 0c38,0 57,-20 57,-59zm215 118l-44 0c-7,0 -11,-4 -11,-12l0 -467c0,-8 4,-12 11,-12l44 0c8,0 12,4 12,12l0 467c0,8 -4,12 -12,12zm163 0l-44 0c-8,0 -12,-4 -12,-12l0 -467c0,-8 4,-12 12,-12l44 0c8,0 12,4 12,12l0 467c0,8 -4,12 -12,12zm356 0l-151 0c-35,0 -61,-9 -80,-28 -19,-19 -28,-46 -28,-80l0 -140c0,-34 9,-61 28,-80 19,-19 45,-28 80,-28l57 0c35,0 61,9 80,28 20,19 29,46 29,80l0 89c0,8 -4,13 -13,13l-187 0c-5,0 -7,2 -7,7l0 30c0,34 17,51 51,51l141 0c8,0 12,4 12,12l0 35c0,8 -4,11 -12,11zm-185 -194l125 0c5,0 7,-2 7,-7l0 -45c0,-17 -4,-30 -12,-38 -7,-9 -20,-13 -38,-13l-38 0c-18,0 -31,4 -39,13 -8,8 -12,21 -12,38l0 45c0,5 3,7 7,7zm333 194l-44 0c-8,0 -12,-4 -12,-12l0 -332c0,-8 4,-12 12,-12l44 0c8,0 12,4 12,12l0 26 2 0c5,-11 14,-21 27,-27 14,-7 28,-11 45,-11l26 0c7,0 11,4 11,12l0 36c0,9 -4,13 -11,11l-42 0c-39,0 -58,22 -58,64l0 221c0,8 -4,12 -12,12zm220 113l-37 0c-8,0 -12,-4 -12,-11l0 -36c0,-8 4,-13 12,-13l16 0c28,0 48,-5 59,-16 11,-12 20,-30 27,-56l-27 0c-7,0 -12,-4 -15,-11l-93 -314c-2,-8 1,-12 9,-12l47 0c7,0 12,4 14,12l76 274 3 0 76 -274c1,-8 6,-12 14,-12l45 0c8,0 12,4 11,13l-96 336c-11,39 -26,69 -45,89 -20,21 -48,31 -84,31z"/>
  </g>
 </g>
</svg>
