<?xml version="1.0" encoding="UTF-8"?>
<!DOCTYPE svg PUBLIC "-//W3C//DTD SVG 1.1//EN" "http://www.w3.org/Graphics/SVG/1.1/DTD/svg11.dtd">
<!-- Creator: CorelDRAW X7 -->
<svg xmlns="http://www.w3.org/2000/svg" xml:space="preserve" width="4.6063in" height="1.55512in" version="1.1" style="shape-rendering:geometricPrecision; text-rendering:geometricPrecision; image-rendering:optimizeQuality; fill-rule:evenodd; clip-rule:evenodd"
viewBox="0 0 4606 1555"
 xmlns:xlink="http://www.w3.org/1999/xlink">
 <defs>
  <style type="text/css">
   <![CDATA[
    .fil3 {fill:#96989A}
    .fil1 {fill:#684D36}
    .fil0 {fill:#684D36;fill-rule:nonzero}
    .fil2 {fill:#008E55;fill-rule:nonzero}
   ]]>
  </style>
 </defs>
 <g id="Layer_x0020_1">
  <metadata id="CorelCorpID_0Corel-Layer"/>
  <g id="_631219984">
   <polygon class="fil0" points="822,1035 973,1035 973,825 1142,1035 1277,1035 1277,581 1126,581 1126,781 964,581 822,581 "/>
   <polygon class="fil0" points="1330,1035 1482,1035 1482,581 1330,581 "/>
   <path class="fil1" d="M1687 803l0 -101 42 0c20,0 36,4 47,12 11,9 17,21 17,38l0 1c0,16 -6,29 -18,37 -12,9 -27,13 -47,13l-41 0zm-152 232l152 0 0 -124 49 0c63,0 112,-14 149,-43 38,-28 57,-70 58,-125l0 -1c-1,-54 -20,-94 -57,-121 -36,-27 -85,-40 -146,-40l-205 0 0 454z"/>
   <path class="fil1" d="M2128 803l0 -101 41 0c21,0 36,4 47,12 12,9 17,21 18,38l0 1c-1,16 -7,29 -18,37 -12,9 -28,13 -47,13l-41 0zm-152 232l152 0 0 -124 49 0c62,0 112,-14 149,-43 37,-28 56,-70 57,-125l0 -1c-1,-54 -19,-94 -56,-121 -37,-27 -85,-40 -147,-40l-204 0 0 454z"/>
   <path class="fil1" d="M2655 910c-30,-1 -53,-11 -70,-31 -17,-20 -25,-44 -26,-71l0 -2c1,-27 9,-51 26,-70 16,-20 39,-30 68,-31 30,1 53,11 70,31 17,20 26,44 26,72l0 1c0,27 -9,51 -26,70 -16,20 -39,30 -68,31zm-2 134c48,0 90,-11 127,-32 37,-21 67,-49 89,-84 21,-36 32,-76 33,-120l0 -2c-1,-44 -12,-84 -33,-119 -22,-36 -51,-64 -88,-84 -37,-21 -79,-32 -126,-32 -47,0 -90,11 -127,32 -37,21 -67,49 -89,85 -21,35 -32,75 -33,120l0 1c1,44 12,84 33,119 22,36 51,64 88,85 37,20 79,31 126,31z"/>
   <path class="fil2" d="M1 778c0,-35 32,-67 32,-67l960 -697c0,0 22,-13 43,-13 24,0 41,12 41,12l606 437c0,0 14,11 14,20 0,8 -27,6 -27,6l-287 0c0,0 -38,0 -54,-5 -18,-6 -44,-24 -44,-24l-220 -150c0,0 -14,-9 -29,-9 -13,0 -30,9 -30,9l-667 468c0,0 -8,5 -8,13 0,8 8,14 8,14l654 458c0,0 23,17 43,17 20,0 46,-19 46,-19l159 -118c0,0 31,-20 50,-23 20,-4 74,-3 74,-3l263 0c0,0 28,-1 22,11 -5,9 -24,23 -24,23l-537 398c0,0 -25,18 -53,18 -29,0 -52,-17 -52,-17l-954 -693c0,0 -29,-30 -29,-66z"/>
   <path class="fil3" d="M3204 1035l-44 0c-8,0 -13,-4 -13,-12l0 -373c0,-5 -2,-7 -7,-7l-88 0c-8,0 -13,-4 -13,-12l0 -36c0,-8 5,-12 13,-12l261 0c8,0 12,4 12,12l0 36c0,8 -4,12 -12,12l-89 0c-5,0 -8,2 -8,7l0 373c0,8 -4,12 -12,12zm428 0l-152 0c-34,0 -61,-10 -80,-29 -19,-19 -28,-46 -28,-80l0 -141c0,-35 9,-61 28,-80 19,-19 46,-29 80,-29l58 0c35,0 62,10 81,29 19,19 29,45 29,80l0 89c0,9 -5,13 -13,13l-188 0c-5,0 -8,2 -8,7l0 30c0,34 17,52 51,52l142 0c9,0 13,4 13,12l0 35c0,8 -4,12 -13,12zm-185 -196l125 0c5,0 8,-2 8,-7l0 -45c0,-18 -4,-31 -12,-39 -8,-8 -21,-12 -39,-12l-39 0c-17,0 -30,4 -38,12 -8,8 -12,21 -12,39l0 45c0,5 2,7 7,7zm496 148l0 36c0,8 -5,12 -13,12l-103 0c-35,0 -62,-10 -81,-29 -19,-19 -28,-46 -28,-80l0 -141c0,-35 9,-61 28,-80 19,-19 46,-29 81,-29l103 0c8,0 13,4 13,12l0 37c0,7 -5,11 -13,11l-93 0c-34,0 -51,17 -51,52l0 135c0,34 17,52 51,52l93 0c8,0 13,4 13,12zm123 48l-45 0c-8,0 -12,-4 -12,-12l0 -470c0,-8 4,-12 12,-12l45 0c8,0 12,4 12,12l0 160 2 0c12,-24 35,-37 71,-37l31 0c34,0 61,10 79,28 18,19 27,46 27,81l0 238c0,8 -4,12 -12,12l-45 0c-8,0 -12,-4 -12,-12l0 -235c0,-35 -17,-52 -51,-52l-33 0c-38,0 -57,20 -57,60l0 227c0,8 -4,12 -12,12zm434 0l-129 0c-8,0 -12,-4 -12,-12l0 -35c0,-7 4,-11 12,-11l118 0c31,0 46,-11 46,-32l0 -8c0,-19 -11,-33 -33,-43l-77 -37c-24,-11 -41,-23 -52,-37 -10,-13 -16,-31 -16,-53 0,-61 34,-91 101,-91l116 0c8,0 11,4 11,12l0 35c0,8 -3,12 -11,12l-102 0c-14,0 -25,2 -33,7 -7,5 -11,11 -11,19l0 8c0,15 12,28 36,39l77 40c25,10 41,23 50,38 10,15 14,34 14,57 0,61 -35,92 -105,92z"/>
  </g>
 </g>
</svg>
